{"count":18910,"next":"https://api.octopus.energy/v1/products/AGILE-FLEX-22-11-25/electricity-tariffs/E-1R-AGILE-FLEX-22-11-25-A/standard-unit-rates/?page=2","previous":null,"results":[{"value_exc_vat":19.03,"value_inc_vat":19.9815,"valid_from":"2023-11-29T22:30:00Z","valid_to":"2023-11-29T23:00:00Z","payment_method":null},{"value_exc_vat":23.79,"value_inc_vat":24.9795,"valid_from":"2023-11-29T22:00:00Z","valid_to":"2023-11-29T22:30:00Z","payment_method":null},{"value_exc_vat":23.62,"value_inc_vat":24.801,"valid_from":"2023-11-29T21:30:00Z","valid_to":"2023-11-29T22:00:00Z","payment_method":null},{"value_exc_vat":29.74,"value_inc_vat":31.227,"valid_from":"2023-11-29T21:00:00Z","valid_to":"2023-11-29T21:30:00Z","payment_method":null},{"value_exc_vat":26.88,"value_inc_vat":28.224,"valid_from":"2023-11-29T20:30:00Z","valid_to":"2023-11-29T21:00:00Z","payment_method":null},{"value_exc_vat":30.03,"value_inc_vat":31.5315,"valid_from":"2023-11-29T20:00:00Z","valid_to":"2023-11-29T20:30:00Z","payment_method":null},{"value_exc_vat":29.86,"value_inc_vat":31.353,"valid_from":"2023-11-29T19:30:00Z","valid_to":"2023-11-29T20:00:00Z","payment_method":null},{"value_exc_vat":30.91,"value_inc_vat":32.4555,"valid_from":"2023-11-29T19:00:00Z","valid_to":"2023-11-29T19:30:00Z","payment_method":null},{"value_exc_vat":46.18,"value_inc_vat":48.489,"valid_from":"2023-11-29T18:30:00Z","valid_to":"2023-11-29T19:00:00Z","payment_method":null},{"value_exc_vat":49.75,"value_inc_vat":52.2375,"valid_from":"2023-11-29T18:00:00Z","valid_to":"2023-11-29T18:30:00Z","payment_method":null},{"value_exc_vat":57.36,"value_inc_vat":60.228,"valid_from":"2023-11-29T17:30:00Z","valid_to":"2023-11-29T18:00:00Z","payment_method":null},{"value_exc_vat":57.42,"value_inc_vat":60.291,"valid_from":"2023-11-29T17:00:00Z","valid_to":"2023-11-29T17:30:00Z","payment_method":null},{"value_exc_vat":65.46,"value_inc_vat":68.733,"valid_from":"2023-11-29T16:30:00Z","valid_to":"2023-11-29T17:00:00Z","payment_method":null},{"value_exc_vat":52.9,"value_inc_vat":55.545,"valid_from":"2023-11-29T16:00:00Z","valid_to":"2023-11-29T16:30:00Z","payment_method":null},{"value_exc_vat":43.26,"value_inc_vat":45.423,"valid_from":"2023-11-29T15:30:00Z","valid_to":"2023-11-29T16:00:00Z","payment_method":null},{"value_exc_vat":32.76,"value_inc_vat":34.398,"valid_from":"2023-11-29T15:00:00Z","valid_to":"2023-11-29T15:30:00Z","payment_method":null},{"value_exc_vat":32.32,"value_inc_vat":33.936,"valid_from":"2023-11-29T14:30:00Z","valid_to":"2023-11-29T15:00:00Z","payment_method":null},{"value_exc_vat":31.58,"value_inc_vat":33.159,"valid_from":"2023-11-29T14:00:00Z","valid_to":"2023-11-29T14:30:00Z","payment_method":null},{"value_exc_vat":30.24,"value_inc_vat":31.752,"valid_from":"2023-11-29T13:30:00Z","valid_to":"2023-11-29T14:00:00Z","payment_method":null},{"value_exc_vat":30.58,"value_inc_vat":32.109,"valid_from":"2023-11-29T13:00:00Z","valid_to":"2023-11-29T13:30:00Z","payment_method":null},{"value_exc_vat":30.24,"value_inc_vat":31.752,"valid_from":"2023-11-29T12:30:00Z","valid_to":"2023-11-29T13:00:00Z","payment_method":null},{"value_exc_vat":29.9,"value_inc_vat":31.395,"valid_from":"2023-11-29T12:00:00Z","valid_to":"2023-11-29T12:30:00Z","payment_method":null},{"value_exc_vat":29.48,"value_inc_vat":30.954,"valid_from":"2023-11-29T11:30:00Z","valid_to":"2023-11-29T12:00:00Z","payment_method":null},{"value_exc_vat":29.76,"value_inc_vat":31.248,"valid_from":"2023-11-29T11:00:00Z","valid_to":"2023-11-29T11:30:00Z","payment_method":null},{"value_exc_vat":27.32,"value_inc_vat":28.686,"valid_from":"2023-11-29T10:30:00Z","valid_to":"2023-11-29T11:00:00Z","payment_method":null},{"value_exc_vat":28.14,"value_inc_vat":29.547,"valid_from":"2023-11-29T10:00:00Z","valid_to":"2023-11-29T10:30:00Z","payment_method":null},{"value_exc_vat":27.72,"value_inc_vat":29.106,"valid_from":"2023-11-29T09:30:00Z","valid_to":"2023-11-29T10:00:00Z","payment_method":null},{"value_exc_vat":28.08,"value_inc_vat":29.484,"valid_from":"2023-11-29T09:00:00Z","valid_to":"2023-11-29T09:30:00Z","payment_method":null},{"value_exc_vat":30.24,"value_inc_vat":31.752,"valid_from":"2023-11-29T08:30:00Z","valid_to":"2023-11-29T09:00:00Z","payment_method":null},{"value_exc_vat":28.35,"value_inc_vat":29.7675,"valid_from":"2023-11-29T08:00:00Z","valid_to":"2023-11-29T08:30:00Z","payment_method":null},{"value_exc_vat":32.15,"value_inc_vat":33.7575,"valid_from":"2023-11-29T07:30:00Z","valid_to":"2023-11-29T08:00:00Z","payment_method":null},{"value_exc_vat":27.09,"value_inc_vat":28.4445,"valid_from":"2023-11-29T07:00:00Z","valid_to":"2023-11-29T07:30:00Z","payment_method":null},{"value_exc_vat":22.05,"value_inc_vat":23.1525,"valid_from":"2023-11-29T06:30:00Z","valid_to":"2023-11-29T07:00:00Z","payment_method":null},{"value_exc_vat":22.51,"value_inc_vat":23.6355,"valid_from":"2023-11-29T06:00:00Z","valid_to":"2023-11-29T06:30:00Z","payment_method":null},{"value_exc_vat":19.17,"value_inc_vat":20.1285,"valid_from":"2023-11-29T05:30:00Z","valid_to":"2023-11-29T06:00:00Z","payment_method":null},{"value_exc_vat":20.85,"value_inc_vat":21.8925,"valid_from":"2023-11-29T05:00:00Z","valid_to":"2023-11-29T05:30:00Z","payment_method":null},{"value_exc_vat":16.8,"value_inc_vat":17.64,"valid_from":"2023-11-29T04:30:00Z","valid_to":"2023-11-29T05:00:00Z","payment_method":null},{"value_exc_vat":18.65,"value_inc_vat":19.5825,"valid_from":"2023-11-29T04:00:00Z","valid_to":"2023-11-29T04:30:00Z","payment_method":null},{"value_exc_vat":16.8,"value_inc_vat":17.64,"valid_from":"2023-11-29T03:30:00Z","valid_to":"2023-11-29T04:00:00Z","payment_method":null},{"value_exc_vat":18.48,"value_inc_vat":19.404,"valid_from":"2023-11-29T03:00:00Z","valid_to":"2023-11-29T03:30:00Z","payment_method":null},{"value_exc_vat":16.28,"value_inc_vat":17.094,"valid_from":"2023-11-29T02:30:00Z","valid_to":"2023-11-29T03:00:00Z","payment_method":null},{"value_exc_vat":16.21,"value_inc_vat":17.0205,"valid_from":"2023-11-29T02:00:00Z","valid_to":"2023-11-29T02:30:00Z","payment_method":null},{"value_exc_vat":15.75,"value_inc_vat":16.5375,"valid_from":"2023-11-29T01:30:00Z","valid_to":"2023-11-29T02:00:00Z","payment_method":null},{"value_exc_vat":16.8,"value_inc_vat":17.64,"valid_from":"2023-11-29T01:00:00Z","valid_to":"2023-11-29T01:30:00Z","payment_method":null},{"value_exc_vat":18.38,"value_inc_vat":19.299,"valid_from":"2023-11-29T00:30:00Z","valid_to":"2023-11-29T01:00:00Z","payment_method":null},{"value_exc_vat":15.45,"value_inc_vat":16.2225,"valid_from":"2023-11-29T00:00:00Z","valid_to":"2023-11-29T00:30:00Z","payment_method":null},{"value_exc_vat":17.01,"value_inc_vat":17.8605,"valid_from":"2023-11-28T23:30:00Z","valid_to":"2023-11-29T00:00:00Z","payment_method":null},{"value_exc_vat":18.48,"value_inc_vat":19.404,"valid_from":"2023-11-28T23:00:00Z","valid_to":"2023-11-28T23:30:00Z","payment_method":null},{"value_exc_vat":15.96,"value_inc_vat":16.758,"valid_from":"2023-11-28T22:30:00Z","valid_to":"2023-11-28T23:00:00Z","payment_method":null},{"value_exc_vat":19.51,"value_inc_vat":20.4855,"valid_from":"2023-11-28T22:00:00Z","valid_to":"2023-11-28T22:30:00Z","payment_method":null},{"value_exc_vat":21.42,"value_inc_vat":22.491,"valid_from":"2023-11-28T21:30:00Z","valid_to":"2023-11-28T22:00:00Z","payment_method":null},{"value_exc_vat":22.69,"value_inc_vat":23.8245,"valid_from":"2023-11-28T21:00:00Z","valid_to":"2023-11-28T21:30:00Z","payment_method":null},{"value_exc_vat":21.99,"value_inc_vat":23.0895,"valid_from":"2023-11-28T20:30:00Z","valid_to":"2023-11-28T21:00:00Z","payment_method":null},{"value_exc_vat":24.8,"value_inc_vat":26.04,"valid_from":"2023-11-28T20:00:00Z","valid_to":"2023-11-28T20:30:00Z","payment_method":null},{"value_exc_vat":25.3,"value_inc_vat":26.565,"valid_from":"2023-11-28T19:30:00Z","valid_to":"2023-11-28T20:00:00Z","payment_method":null},{"value_exc_vat":26.46,"value_inc_vat":27.783,"valid_from":"2023-11-28T19:00:00Z","valid_to":"2023-11-28T19:30:00Z","payment_method":null},{"value_exc_vat":40.51,"value_inc_vat":42.5355,"valid_from":"2023-11-28T18:30:00Z","valid_to":"2023-11-28T19:00:00Z","payment_method":null},{"value_exc_vat":42.23,"value_inc_vat":44.3415,"valid_from":"2023-11-28T18:00:00Z","valid_to":"2023-11-28T18:30:00Z","payment_method":null},{"value_exc_vat":44.25,"value_inc_vat":46.4625,"valid_from":"2023-11-28T17:30:00Z","valid_to":"2023-11-28T18:00:00Z","payment_method":null},{"value_exc_vat":44.25,"value_inc_vat":46.4625,"valid_from":"2023-11-28T17:00:00Z","valid_to":"2023-11-28T17:30:00Z","payment_method":null},{"value_exc_vat":50.51,"value_inc_vat":53.0355,"valid_from":"2023-11-28T16:30:00Z","valid_to":"2023-11-28T17:00:00Z","payment_method":null},{"value_exc_vat":44.25,"value_inc_vat":46.4625,"valid_from":"2023-11-28T16:00:00Z","valid_to":"2023-11-28T16:30:00Z","payment_method":null},{"value_exc_vat":31.5,"value_inc_vat":33.075,"valid_from":"2023-11-28T15:30:00Z","valid_to":"2023-11-28T16:00:00Z","payment_method":null},{"value_exc_vat":29.9,"value_inc_vat":31.395,"valid_from":"2023-11-28T15:00:00Z","valid_to":"2023-11-28T15:30:00Z","payment_method":null},{"value_exc_vat":26.25,"value_inc_vat":27.5625,"valid_from":"2023-11-28T14:30:00Z","valid_to":"2023-11-28T15:00:00Z","payment_method":null},{"value_exc_vat":26.61,"value_inc_vat":27.9405,"valid_from":"2023-11-28T14:00:00Z","valid_to":"2023-11-28T14:30:00Z","payment_method":null},{"value_exc_vat":23.73,"value_inc_vat":24.9165,"valid_from":"2023-11-28T13:30:00Z","valid_to":"2023-11-28T14:00:00Z","payment_method":null},{"value_exc_vat":25.2,"value_inc_vat":26.46,"valid_from":"2023-11-28T13:00:00Z","valid_to":"2023-11-28T13:30:00Z","payment_method":null},{"value_exc_vat":24.78,"value_inc_vat":26.019,"valid_from":"2023-11-28T12:30:00Z","valid_to":"2023-11-28T13:00:00Z","payment_method":null},{"value_exc_vat":24.97,"value_inc_vat":26.2185,"valid_from":"2023-11-28T12:00:00Z","valid_to":"2023-11-28T12:30:00Z","payment_method":null},{"value_exc_vat":24.99,"value_inc_vat":26.2395,"valid_from":"2023-11-28T11:30:00Z","valid_to":"2023-11-28T12:00:00Z","payment_method":null},{"value_exc_vat":24.8,"value_inc_vat":26.04,"valid_from":"2023-11-28T11:00:00Z","valid_to":"2023-11-28T11:30:00Z","payment_method":null},{"value_exc_vat":25.81,"value_inc_vat":27.1005,"valid_from":"2023-11-28T10:30:00Z","valid_to":"2023-11-28T11:00:00Z","payment_method":null},{"value_exc_vat":26.54,"value_inc_vat":27.867,"valid_from":"2023-11-28T10:00:00Z","valid_to":"2023-11-28T10:30:00Z","payment_method":null},{"value_exc_vat":26.23,"value_inc_vat":27.5415,"valid_from":"2023-11-28T09:30:00Z","valid_to":"2023-11-28T10:00:00Z","payment_method":null},{"value_exc_vat":27.03,"value_inc_vat":28.3815,"valid_from":"2023-11-28T09:00:00Z","valid_to":"2023-11-28T09:30:00Z","payment_method":null},{"value_exc_vat":25.87,"value_inc_vat":27.1635,"valid_from":"2023-11-28T08:30:00Z","valid_to":"2023-11-28T09:00:00Z","payment_method":null},{"value_exc_vat":23.52,"value_inc_vat":24.696,"valid_from":"2023-11-28T08:00:00Z","valid_to":"2023-11-28T08:30:00Z","payment_method":null},{"value_exc_vat":26.16,"value_inc_vat":27.468,"valid_from":"2023-11-28T07:30:00Z","valid_to":"2023-11-28T08:00:00Z","payment_method":null},{"value_exc_vat":20.58,"value_inc_vat":21.609,"valid_from":"2023-11-28T07:00:00Z","valid_to":"2023-11-28T07:30:00Z","payment_method":null},{"value_exc_vat":20.16,"value_inc_vat":21.168,"valid_from":"2023-11-28T06:30:00Z","valid_to":"2023-11-28T07:00:00Z","payment_method":null},{"value_exc_vat":23.08,"value_inc_vat":24.234,"valid_from":"2023-11-28T06:00:00Z","valid_to":"2023-11-28T06:30:00Z","payment_method":null},{"value_exc_vat":17.43,"value_inc_vat":18.3015,"valid_from":"2023-11-28T05:30:00Z","valid_to":"2023-11-28T06:00:00Z","payment_method":null},{"value_exc_vat":19.49,"value_inc_vat":20.4645,"valid_from":"2023-11-28T05:00:00Z","valid_to":"2023-11-28T05:30:00Z","payment_method":null},{"value_exc_vat":18.48,"value_inc_vat":19.404,"valid_from":"2023-11-28T04:30:00Z","valid_to":"2023-11-28T05:00:00Z","payment_method":null},{"value_exc_vat":19.15,"value_inc_vat":20.1075,"valid_from":"2023-11-28T04:00:00Z","valid_to":"2023-11-28T04:30:00Z","payment_method":null},{"value_exc_vat":18.44,"value_inc_vat":19.362,"valid_from":"2023-11-28T03:30:00Z","valid_to":"2023-11-28T04:00:00Z","payment_method":null},{"value_exc_vat":18.48,"value_inc_vat":19.404,"valid_from":"2023-11-28T03:00:00Z","valid_to":"2023-11-28T03:30:00Z","payment_method":null},{"value_exc_vat":18.44,"value_inc_vat":19.362,"valid_from":"2023-11-28T02:30:00Z","valid_to":"2023-11-28T03:00:00Z","payment_method":null},{"value_exc_vat":18.44,"value_inc_vat":19.362,"valid_from":"2023-11-28T02:00:00Z","valid_to":"2023-11-28T02:30:00Z","payment_method":null},{"value_exc_vat":18.31,"value_inc_vat":19.2255,"valid_from":"2023-11-28T01:30:00Z","valid_to":"2023-11-28T02:00:00Z","payment_method":null},{"value_exc_vat":18.82,"value_inc_vat":19.761,"valid_from":"2023-11-28T01:00:00Z","valid_to":"2023-11-28T01:30:00Z","payment_method":null},{"value_exc_vat":19.15,"value_inc_vat":20.1075,"valid_from":"2023-11-28T00:30:00Z","valid_to":"2023-11-28T01:00:00Z","payment_method":null},{"value_exc_vat":17.32,"value_inc_vat":18.186,"valid_from":"2023-11-28T00:00:00Z","valid_to":"2023-11-28T00:30:00Z","payment_method":null},{"value_exc_vat":17.12,"value_inc_vat":17.976,"valid_from":"2023-11-27T23:30:00Z","valid_to":"2023-11-28T00:00:00Z","payment_method":null},{"value_exc_vat":17.32,"value_inc_vat":18.186,"valid_from":"2023-11-27T23:00:00Z","valid_to":"2023-11-27T23:30:00Z","payment_method":null},{"value_exc_vat":16.8,"value_inc_vat":17.64,"valid_from":"2023-11-27T22:30:00Z","valid_to":"2023-11-27T23:00:00Z","payment_method":null},{"value_exc_vat":20.5,"value_inc_vat":21.525,"valid_from":"2023-11-27T22:00:00Z","valid_to":"2023-11-27T22:30:00Z","payment_method":null},{"value_exc_vat":20.16,"value_inc_vat":21.168,"valid_from":"2023-11-27T21:30:00Z","valid_to":"2023-11-27T22:00:00Z","payment_method":null},{"value_exc_vat":20.79,"value_inc_vat":21.8295,"valid_from":"2023-11-27T21:00:00Z","valid_to":"2023-11-27T21:30:00Z","payment_method":null}]}
